…
There are 43 unique neighborhoods.

### unique zip codes in `zip_codes`

``` r
missing_part = 
  zipcodes_df |> 
  anti_join(zori_df, by = "zip_code") |> 
  distinct(zip_code)

print(missing_part)
```

    ## # A tibble: 171 × 1
    ##    zip_code
    ##       <dbl>
    ##  1    10464
    ##  2    10474
    ##  3    10475
    ##  4    10499
    ##  5    10550
    ##  6    10704
    ##  7    10705
    ##  8    10803
    ##  9    11202
    ## 10    11224
    ## # ℹ 161 more rows
…
